{
    "count":170,
    "next":"https://ll.thespacedevs.com/2.1.0/launch/upcoming/?format=json&hide_recent_previous=false&include_suborbital=true&is_crewed=false&limit=10&offset=10&related=false",
    "previous":null,
    "results":[
        {"id":"d5d607b7-05ed-4142-8703-14b553c195e0","url":"https://ll.thespacedevs.com/2.1.0/launch/d5d607b7-05ed-4142-8703-14b553c195e0/?format=json","launch_library_id":1412,"slug":"falcon-9-block-5-turksat-5a","name":"Falcon 9 Block 5 | Türksat 5A","status":{"id":1,"name":"Go for Launch","abbrev":"Go","description":"Current T-0 confirmed by official or reliable sources."},"net":"2021-01-08T01:28:00Z","window_end":"2021-01-08T05:28:00Z","window_start":"2021-01-08T01:28:00Z","inhold":false,"tbdtime":true,"tbddate":true,"probability":60,"holdreason":"","failreason":"","hashtag":null,"launch_service_provider":{"id":121,"url":"https://ll.thespacedevs.com/2.1.0/agencies/121/?format=json","name":"SpaceX","type":"Commercial"},"rocket":{"id":136,"configuration":{"id":164,"launch_library_id":188,"url":"https://ll.thespacedevs.com/2.1.0/config/launcher/164/?format=json","name":"Falcon 9 Block 5","family":"Falcon","full_name":"Falcon 9 Block 5","variant":"Block 5"}},"mission":{"id":1222,"launch_library_id":null,"name":"Türksat 5A","description":"Türksat 5A is the first of two Turkish next generation communications satellites, which will be operated by Türksat for commercial and military purposes.","launch_designator":null,"type":"Communications","orbit":{"id":2,"name":"Geostationary Transfer Orbit","abbrev":"GTO"}},"pad":{"id":80,"url":"https://ll.thespacedevs.com/2.1.0/pad/80/?format=json","agency_id":121,"name":"Space Launch Complex 40","info_url":null,"wiki_url":"https://en.wikipedia.org/wiki/Cape_Canaveral_Air_Force_Station_Space_Launch_Complex_40","map_url":"http://maps.google.com/maps?q=28.56194122,-80.57735736","latitude":"28.56194122","longitude":"-80.57735736","location":{"id":12,"url":"https://ll.thespacedevs.com/2.1.0/location/12/?format=json","name":"Cape Canaveral, FL, USA","country_code":"USA","map_image":"https://spacelaunchnow-prod-east.nyc3.digitaloceanspaces.com/media/launch_images/location_12_20200803142519.jpg","total_launch_count":208,"total_landing_count":20},"map_image":"https://spacelaunchnow-prod-east.nyc3.digitaloceanspaces.com/media/launch_images/pad_80_20200803143323.jpg","total_launch_count":63},"webcast_live":false,"image":"https://spacelaunchnow-prod-east.nyc3.digitaloceanspaces.com/media/launcher_images/falcon25209_image_20190224025007.jpeg","infographic":null,"program":[]},
        {"id":"20d9789c-dfdf-46b5-a964-de5f031615a5","url":"https://ll.thespacedevs.com/2.1.0/launch/20d9789c-dfdf-46b5-a964-de5f031615a5/?format=json","launch_library_id":2080,"slug":"launcherone-launch-demo-2","name":"LauncherOne | Launch Demo 2","status":{"id":8,"name":"To Be Confirmed","abbrev":"TBC","description":"Awaiting official confirmation - current date is known with some certainty."},"net":"2021-01-10T18:00:00Z","window_end":"2021-01-10T22:00:00Z","window_start":"2021-01-10T18:00:00Z","inhold":false,"tbdtime":true,"tbddate":true,"probability":-1,"holdreason":"","failreason":"","hashtag":null,"launch_service_provider":{"id":199,"url":"https://ll.thespacedevs.com/2.1.0/agencies/199/?format=json","name":"Virgin Orbit","type":"Commercial"},"rocket":{"id":2736,"configuration":{"id":141,"launch_library_id":173,"url":"https://ll.thespacedevs.com/2.1.0/config/launcher/141/?format=json","name":"LauncherOne","family":"Launcher","full_name":"LauncherOne","variant":"One"}},"mission":{"id":496,"launch_library_id":643,"name":"Launch Demo 2 (VCLS ELaNa XX)","description":"This is Virgin Orbit's second attempt to launch the LauncherOne rocket. It also carries cubesats which were contracted by NASA through Venture Class Launch Services contract.","launch_designator":null,"type":"Dedicated Rideshare","orbit":{"id":13,"name":"Polar Orbit","abbrev":"PO"}},"pad":{"id":53,"url":"https://ll.thespacedevs.com/2.1.0/pad/53/?format=json","agency_id":null,"name":"Mojave Air and Space Port","info_url":null,"wiki_url":"https://en.wikipedia.org/wiki/Mojave_Air_and_Space_Port","map_url":"https://www.google.com/maps/place/35 °03'34.0\"N+118 °09'06.0\"W/","latitude":"35.059444","longitude":"-118.151667","location":{"id":20,"url":"https://ll.thespacedevs.com/2.1.0/location/20/?format=json","name":"Air launch to orbit","country_code":"UNK","map_image":"https://spacelaunchnow-prod-east.nyc3.digitaloceanspaces.com/media/launch_images/location_20_20200803142433.jpg","total_launch_count":44,"total_landing_count":0},"map_image":"https://spacelaunchnow-prod-east.nyc3.digitaloceanspaces.com/media/launch_images/pad_53_20200803143612.jpg","total_launch_count":1},"webcast_live":false,"image":"https://spacelaunchnow-prod-east.nyc3.digitaloceanspaces.com/media/launcher_images/launcherone_image_20200101110016.jpeg","infographic":null,"program":[]},
        {"id":"f213a5df-579a-4682-8143-df228e463049","url":"https://ll.thespacedevs.com/2.1.0/launch/f213a5df-579a-4682-8143-df228e463049/?format=json","launch_library_id":1965,"slug":"falcon-9-block-5-transporter-1-dedicated-sso-rides","name":"Falcon 9 Block 5 | Transporter 1 (Dedicated SSO Rideshare)","status":{"id":2,"name":"To Be Determined","abbrev":"TBD","description":"Current date is a 'No Earlier Than' estimation based on unreliable or interpreted sources."},"net":"2021-01-14T00:00:00Z","window_end":"2021-01-14T00:00:00Z","window_start":"2021-01-14T00:00:00Z","inhold":false,"tbdtime":true,"tbddate":true,"probability":-1,"holdreason":"","failreason":"","hashtag":null,"launch_service_provider":{"id":121,"url":"https://ll.thespacedevs.com/2.1.0/agencies/121/?format=json","name":"SpaceX","type":"Commercial"},"rocket":{"id":2518,"configuration":{"id":164,"launch_library_id":188,"url":"https://ll.thespacedevs.com/2.1.0/config/launcher/164/?format=json","name":"Falcon 9 Block 5","family":"Falcon","full_name":"Falcon 9 Block 5","variant":"Block 5"}},"mission":{"id":1223,"launch_library_id":null,"name":"Transporter 1 (Dedicated SSO Rideshare)","description":"Transporter 1 mission is a dedicated rideshare flight to a sun-synchronous orbit with dozens of small microsatellites and nanosatellites for commercial and government customers.","launch_designator":null,"type":"Dedicated Rideshare","orbit":{"id":17,"name":"Sun-Synchronous Orbit","abbrev":"SSO"}},"pad":{"id":80,"url":"https://ll.thespacedevs.com/2.1.0/pad/80/?format=json","agency_id":121,"name":"Space Launch Complex 40","info_url":null,"wiki_url":"https://en.wikipedia.org/wiki/Cape_Canaveral_Air_Force_Station_Space_Launch_Complex_40","map_url":"http://maps.google.com/maps?q=28.56194122,-80.57735736","latitude":"28.56194122","longitude":"-80.57735736","location":{"id":12,"url":"https://ll.thespacedevs.com/2.1.0/location/12/?format=json","name":"Cape Canaveral, FL, USA","country_code":"USA","map_image":"https://spacelaunchnow-prod-east.nyc3.digitaloceanspaces.com/media/launch_images/location_12_20200803142519.jpg","total_launch_count":208,"total_landing_count":20},"map_image":"https://spacelaunchnow-prod-east.nyc3.digitaloceanspaces.com/media/launch_images/pad_80_20200803143323.jpg","total_launch_count":63},"webcast_live":false,"image":"https://spacelaunchnow-prod-east.nyc3.digitaloceanspaces.com/media/launcher_images/falcon25209_image_20190224025007.jpeg","infographic":null,"program":[]},
        {"id":"120c53d4-d3a1-42fe-b2a5-a63e3b11d72b","url":"https://ll.thespacedevs.com/2.1.0/launch/120c53d4-d3a1-42fe-b2a5-a63e3b11d72b/?format=json","launch_library_id":1640,"slug":"electron-stp-27rm","name":"Electron | STP-27RM","status":{"id":2,"name":"To Be Determined","abbrev":"TBD","description":"Current date is a 'No Earlier Than' estimation based on unreliable or interpreted sources."},"net":"2021-01-31T00:00:00Z","window_end":"2021-01-31T00:00:00Z","window_start":"2021-01-31T00:00:00Z","inhold":false,"tbdtime":true,"tbddate":true,"probability":-1,"holdreason":"","failreason":"","hashtag":null,"launch_service_provider":{"id":147,"url":"https://ll.thespacedevs.com/2.1.0/agencies/147/?format=json","name":"Rocket Lab Ltd","type":"Commercial"},"rocket":{"id":2135,"configuration":{"id":26,"launch_library_id":148,"url":"https://ll.thespacedevs.com/2.1.0/config/launcher/26/?format=json","name":"Electron","family":"Electron","full_name":"Electron","variant":""}},"mission":{"id":1123,"launch_library_id":1320,"name":"STP-27RM","description":"A U.S. Air Force experimental spacecraft.","launch_designator":null,"type":"Government/Top Secret","orbit":null},"pad":{"id":79,"url":"https://ll.thespacedevs.com/2.1.0/pad/79/?format=json","agency_id":147,"name":"Rocket Lab Launch Complex 2","info_url":null,"wiki_url":null,"map_url":null,"latitude":"37.834","longitude":"-75.488","location":{"id":21,"url":"https://ll.thespacedevs.com/2.1.0/location/21/?format=json","name":"Wallops Island, Virginia, USA","country_code":"USA","map_image":"https://spacelaunchnow-prod-east.nyc3.digitaloceanspaces.com/media/launch_images/location_21_20200803142423.jpg","total_launch_count":20,"total_landing_count":0},"map_image":"https://spacelaunchnow-prod-east.nyc3.digitaloceanspaces.com/media/launch_images/pad_79_20200803143607.jpg","total_launch_count":0},"webcast_live":false,"image":"https://spacelaunchnow-prod-east.nyc3.digitaloceanspaces.com/media/launcher_images/electron_image_20190705175640.jpeg","infographic":null,"program":[]},{"id":"30412a48-cb4d-43d6-a304-6ae5f062504f","url":"https://ll.thespacedevs.com/2.1.0/launch/30412a48-cb4d-43d6-a304-6ae5f062504f/?format=json","launch_library_id":2098,"slug":"kuaizhou-1a-jilin-1-02d","name":"Kuaizhou-1A | Jilin-1-02D","status":{"id":2,"name":"To Be Determined","abbrev":"TBD","description":"Current date is a 'No Earlier Than' estimation based on unreliable or interpreted sources."},"net":"2021-01-31T00:00:00Z","window_end":"2021-01-31T00:00:00Z","window_start":"2021-01-31T00:00:00Z","inhold":false,"tbdtime":true,"tbddate":true,"probability":-1,"holdreason":"","failreason":"","hashtag":null,"launch_service_provider":{"id":184,"url":"https://ll.thespacedevs.com/2.1.0/agencies/184/?format=json","name":"China Aerospace Science and Industry Corporation","type":"Government"},"rocket":{"id":2758,"configuration":{"id":135,"launch_library_id":155,"url":"https://ll.thespacedevs.com/2.1.0/config/launcher/135/?format=json","name":"Kuaizhou","family":"Kuaizhou","full_name":"Kuaizhou-1A","variant":"1A"}},"mission":{"id":1156,"launch_library_id":1346,"name":"Jilin-1-02D","description":"Jilin-1 is a series of Chinese commercial remote sensing satellites.","launch_designator":null,"type":"Earth Science","orbit":null},"pad":{"id":71,"url":"https://ll.thespacedevs.com/2.1.0/pad/71/?format=json","agency_id":null,"name":"Unknown Pad","info_url":null,"wiki_url":"","map_url":"","latitude":"40.958","longitude":"100.291","location":{"id":17,"url":"https://ll.thespacedevs.com/2.1.0/location/17/?format=json","name":"Jiuquan, People's Republic of China","country_code":"CHN","map_image":"https://spacelaunchnow-prod-east.nyc3.digitaloceanspaces.com/media/launch_images/location_17_20200803142429.jpg","total_launch_count":97,"total_landing_count":0},"map_image":"https://spacelaunchnow-prod-east.nyc3.digitaloceanspaces.com/media/launch_images/pad_71_20200803143610.jpg","total_launch_count":25},"webcast_live":false,"image":"https://spacelaunchnow-prod-east.nyc3.digitaloceanspaces.com/media/launcher_images/kuaizhou_image_20191027094423.jpeg","infographic":null,"program":[]},{"id":"397c50c5-8a2b-4ca5-807d-8911c14b7126","url":"https://ll.thespacedevs.com/2.1.0/launch/397c50c5-8a2b-4ca5-807d-8911c14b7126/?format=json","launch_library_id":1131,"slug":"gslv-mk-ii-eos-03-gisat-1","name":"GSLV Mk II | EOS-03 (GISAT-1)","status":{"id":2,"name":"To Be Determined","abbrev":"TBD","description":"Current date is a 'No Earlier Than' estimation based on unreliable or interpreted sources."},"net":"2021-01-31T00:00:00Z","window_end":"2021-01-31T00:00:00Z","window_start":"2021-01-31T00:00:00Z","inhold":false,"tbdtime":true,"tbddate":true,"probability":-1,"holdreason":"","failreason":"","hashtag":null,"launch_service_provider":{"id":31,"url":"https://ll.thespacedevs.com/2.1.0/agencies/31/?format=json","name":"Indian Space Research Organization","type":"Government"},"rocket":{"id":56,"configuration":{"id":168,"launch_library_id":60,"url":"https://ll.thespacedevs.com/2.1.0/config/launcher/168/?format=json","name":"GSLV Mk II","family":"PSLV","full_name":"GSLV Mk. II","variant":""}},"mission":{"id":750,"launch_library_id":458,"name":"GISAT-1","description":"GISAT-1 is an Indian earth observation satellite to be launched in geostationary orbit. It is tasked with continuous observation of Indian sub-continent and quick monitoring of natural hazards and disaster. GISAT carries an imaging payload consisting of of multi-spectral, multi-resolution from 50 m to 1.5 km. It will provide pictures of the area of interest on near real time basis including border areas.","launch_designator":null,"type":"Earth Science","orbit":{"id":2,"name":"Geostationary Transfer Orbit","abbrev":"GTO"}},"pad":{"id":82,"url":"https://ll.thespacedevs.com/2.1.0/pad/82/?format=json","agency_id":31,"name":"Satish Dhawan Space Centre Second Launch Pad","info_url":null,"wiki_url":"https://en.wikipedia.org/wiki/Satish_Dhawan_Space_Centre_Second_Launch_Pad","map_url":"https://www.google.com/maps?q=13.7199,80.2304","latitude":"13.7199","longitude":"80.2304","location":{"id":14,"url":"https://ll.thespacedevs.com/2.1.0/location/14/?format=json","name":"Sriharikota, Republic of India","country_code":"IND","map_image":"https://spacelaunchnow-prod-east.nyc3.digitaloceanspaces.com/media/launch_images/location_14_20200803142403.jpg","total_launch_count":53,"total_landing_count":0},"map_image":"https://spacelaunchnow-prod-east.nyc3.digitaloceanspaces.com/media/launch_images/pad_82_20200803143602.jpg","total_launch_count":15},"webcast_live":false,"image":"https://spacelaunchnow-prod-east.nyc3.digitaloceanspaces.com/media/launcher_images/gslv2520mk2520ii_image_20190825171642.jpg","infographic":"https://spacelaunchnow-prod-east.nyc3.digitaloceanspaces.com/media/launch_images/gslv2520mk252_infographic_20200805202604.png","program":[]},{"id":"504ba71a-bf09-48f1-9346-48c3d79e580b","url":"https://ll.thespacedevs.com/2.1.0/launch/504ba71a-bf09-48f1-9346-48c3d79e580b/?format=json","launch_library_id":null,"slug":"momo-flight-7","name":"MOMO | Flight 7","status":{"id":2,"name":"To Be Determined","abbrev":"TBD","description":"Current date is a 'No Earlier Than' estimation based on unreliable or interpreted sources."},"net":"2021-01-31T00:00:00Z","window_end":"2021-01-31T00:00:00Z","window_start":"2021-01-31T00:00:00Z","inhold":false,"tbdtime":false,"tbddate":false,"probability":null,"holdreason":"","failreason":"","hashtag":null,"launch_service_provider":{"id":1002,"url":"https://ll.thespacedevs.com/2.1.0/agencies/1002/?format=json","name":"Interstellar Technologies","type":null},"rocket":{"id":2730,"configuration":{"id":198,"launch_library_id":null,"url":"https://ll.thespacedevs.com/2.1.0/config/launcher/198/?format=json","name":"MOMO","family":"MOMO","full_name":"MOMO","variant":""}},"mission":{"id":1132,"launch_library_id":null,"name":"Flight 7","description":"The sixth (Flight 6 has not happened yet) flight of Interstellar Technologies MOMO rocket.","launch_designator":null,"type":"Suborbital","orbit":{"id":15,"name":"Suborbital","abbrev":"Sub"}},"pad":{"id":106,"url":"https://ll.thespacedevs.com/2.1.0/pad/106/?format=json","agency_id":1002,"name":"Taiki-cho, Hokkaido, Japan","info_url":null,"wiki_url":null,"map_url":null,"latitude":"42.50000000","longitude":"143.28333333","location":{"id":32,"url":"https://ll.thespacedevs.com/2.1.0/location/32/?format=json","name":"Taiki-cho, Hokkaido, Japan","country_code":"JPN","map_image":"https://spacelaunchnow-prod-east.nyc3.digitaloceanspaces.com/media/launch_images/location_32_20200803142407.jpg","total_launch_count":5,"total_landing_count":0},"map_image":"https://spacelaunchnow-prod-east.nyc3.digitaloceanspaces.com/media/launch_images/pad_106_20200803143453.jpg","total_launch_count":5},"webcast_live":false,"image":"https://spacelaunchnow-prod-east.nyc3.digitaloceanspaces.com/media/launcher_images/momo_image_20190705174455.jpg","infographic":null,"program":[]},{"id":"54542f3a-1a28-430b-a416-03f58e1a88d2","url":"https://ll.thespacedevs.com/2.1.0/launch/54542f3a-1a28-430b-a416-03f58e1a88d2/?format=json","launch_library_id":1357,"slug":"long-march-3b-fengyun-4b","name":"Long March 3B | Fengyun-4B","status":{"id":2,"name":"To Be Determined","abbrev":"TBD","description":"Current date is a 'No Earlier Than' estimation based on unreliable or interpreted sources."},"net":"2021-01-31T00:00:00Z","window_end":"2021-01-31T00:00:00Z","window_start":"2021-01-31T00:00:00Z","inhold":false,"tbdtime":true,"tbddate":true,"probability":-1,"holdreason":"","failreason":"","hashtag":null,"launch_service_provider":{"id":88,"url":"https://ll.thespacedevs.com/2.1.0/agencies/88/?format=json","name":"China Aerospace Science and Technology Corporation","type":"Government"},"rocket":{"id":70,"configuration":{"id":19,"launch_library_id":22,"url":"https://ll.thespacedevs.com/2.1.0/config/launcher/19/?format=json","name":"Long March 3","family":"Long March 3","full_name":"Long March 3B","variant":"3B"}},"mission":{"id":1122,"launch_library_id":1319,"name":"Fengyun-4B","description":"China's geostationary meteorological satellite program FY-4 (Feng Yun 4) is the second generation of chinese geostationary meteorological satellites.","launch_designator":null,"type":"Earth Science","orbit":null},"pad":{"id":86,"url":"https://ll.thespacedevs.com/2.1.0/pad/86/?format=json","agency_id":17,"name":"Unknown","info_url":null,"wiki_url":"https://en.wikipedia.org/wiki/Xichang_Satellite_Launch_Center","map_url":"https://www.google.com/maps?ll=28.246017,102.026556&q=28.246017,102.026556&hl=en&t=m&z=15","latitude":"28.246017","longitude":"102.026556","location":{"id":16,"url":"https://ll.thespacedevs.com/2.1.0/location/16/?format=json","name":"Xichang Satellite Launch Center, People's Republic of China","country_code":"CHN","map_image":"https://spacelaunchnow-prod-east.nyc3.digitaloceanspaces.com/media/launch_images/location_16_20200803142513.jpg","total_launch_count":99,"total_landing_count":0},"map_image":"https://spacelaunchnow-prod-east.nyc3.digitaloceanspaces.com/media/launch_images/pad_86_20200803143555.jpg","total_launch_count":17},"webcast_live":false,"image":"https://spacelaunchnow-prod-east.nyc3.digitaloceanspaces.com/media/launcher_images/long2520march25203_image_20200102181012.jpg","infographic":null,"program":[]},{"id":"6d847530-c328-445b-9689-6969ae689d79","url":"https://ll.thespacedevs.com/2.1.0/launch/6d847530-c328-445b-9689-6969ae689d79/?format=json","launch_library_id":1420,"slug":"long-march-4c-fengyun-3e","name":"Long March 4C | Fengyun-3E","status":{"id":2,"name":"To Be Determined","abbrev":"TBD","description":"Current date is a 'No Earlier Than' estimation based on unreliable or interpreted sources."},"net":"2021-01-31T00:00:00Z","window_end":"2021-01-31T00:00:00Z","window_start":"2021-01-31T00:00:00Z","inhold":false,"tbdtime":true,"tbddate":true,"probability":-1,"holdreason":"","failreason":"","hashtag":null,"launch_service_provider":{"id":88,"url":"https://ll.thespacedevs.com/2.1.0/agencies/88/?format=json","name":"China Aerospace Science and Technology Corporation","type":"Government"},"rocket":{"id":73,"configuration":{"id":64,"launch_library_id":70,"url":"https://ll.thespacedevs.com/2.1.0/config/launcher/64/?format=json","name":"Long March 4C","family":"Long March 4","full_name":"Long March 4C","variant":"C"}},"mission":null,"pad":{"id":60,"url":"https://ll.thespacedevs.com/2.1.0/pad/60/?format=json","agency_id":null,"name":"Unknown Pad","info_url":null,"wiki_url":"","map_url":"","latitude":"38.849","longitude":"111.608","location":{"id":19,"url":"https://ll.thespacedevs.com/2.1.0/location/19/?format=json","name":"Taiyuan, People's Republic of China","country_code":"CHN","map_image":"https://spacelaunchnow-prod-east.nyc3.digitaloceanspaces.com/media/launch_images/location_19_20200803142421.jpg","total_launch_count":58,"total_landing_count":0},"map_image":"https://spacelaunchnow-prod-east.nyc3.digitaloceanspaces.com/media/launch_images/pad_60_20200803143606.jpg","total_launch_count":27},"webcast_live":false,"image":"https://spacelaunchnow-prod-east.nyc3.digitaloceanspaces.com/media/launcher_images/long2520march25204_image_20190520170012.jpeg","infographic":null,"program":[]},{"id":"708c2b85-50d6-4baa-bd3e-fdfb0257ea50","url":"https://ll.thespacedevs.com/2.1.0/launch/708c2b85-50d6-4baa-bd3e-fdfb0257ea50/?format=json","launch_library_id":2099,"slug":"kuaizhou-1a-jilin-1-02f","name":"Kuaizhou-1A | Jilin-1-02F","status":{"id":2,"name":"To Be Determined","abbrev":"TBD","description":"Current date is a 'No Earlier Than' estimation based on unreliable or interpreted sources."},"net":"2021-01-31T00:00:00Z","window_end":"2021-01-31T00:00:00Z","window_start":"2021-01-31T00:00:00Z","inhold":false,"tbdtime":true,"tbddate":true,"probability":-1,"holdreason":"","failreason":"","hashtag":null,"launch_service_provider":{"id":184,"url":"https://ll.thespacedevs.com/2.1.0/agencies/184/?format=json","name":"China Aerospace Science and Industry Corporation","type":"Government"},"rocket":{"id":2759,"configuration":{"id":135,"launch_library_id":155,"url":"https://ll.thespacedevs.com/2.1.0/config/launcher/135/?format=json","name":"Kuaizhou","family":"Kuaizhou","full_name":"Kuaizhou-1A","variant":"1A"}},"mission":{"id":1157,"launch_library_id":1347,"name":"Jilin-1-02F","description":"Jilin-1 is a series of Chinese commercial remote sensing satellites.","launch_designator":null,"type":"Earth Science","orbit":null},"pad":{"id":71,"url":"https://ll.thespacedevs.com/2.1.0/pad/71/?format=json","agency_id":null,"name":"Unknown Pad","info_url":null,"wiki_url":"","map_url":"","latitude":"40.958","longitude":"100.291","location":{"id":17,"url":"https://ll.thespacedevs.com/2.1.0/location/17/?format=json","name":"Jiuquan, People's Republic of China","country_code":"CHN","map_image":"https://spacelaunchnow-prod-east.nyc3.digitaloceanspaces.com/media/launch_images/location_17_20200803142429.jpg","total_launch_count":97,"total_landing_count":0},"map_image":"https://spacelaunchnow-prod-east.nyc3.digitaloceanspaces.com/media/launch_images/pad_71_20200803143610.jpg","total_launch_count":25},"webcast_live":false,"image":"https://spacelaunchnow-prod-east.nyc3.digitaloceanspaces.com/media/launcher_images/kuaizhou_image_20191027094423.jpeg","infographic":null,"program":[]}]}

